<mxfile host="app.diagrams.net" modified="2023-05-12T05:42:24.452Z" agent="Mozilla/5.0 (Windows NT 10.0; Win64; x64) AppleWebKit/537.36 (KHTML, like Gecko) Chrome/112.0.0.0 Safari/537.36" etag="nPiynakwLyep31RHyMk6" version="21.2.9" type="gitlab">
  <diagram name="Page-1" id="dZpNjOM_qJDL9wq8Eb-g">
    <mxGraphModel dx="1434" dy="764" grid="1" gridSize="10" guides="1" tooltips="1" connect="1" arrows="1" fold="1" page="1" pageScale="1" pageWidth="850" pageHeight="1100" math="0" shadow="0">
      <root>
        <mxCell id="0" />
        <mxCell id="1" parent="0" />
        <mxCell id="KRlPIssLuHrA_qyWP6I0-1" value="&lt;b style=&quot;font-size: 14px;&quot;&gt;Select service &lt;br&gt;required&lt;/b&gt;" style="rounded=1;whiteSpace=wrap;html=1;" vertex="1" parent="1">
          <mxGeometry x="160" y="50" width="120" height="50" as="geometry" />
        </mxCell>
        <mxCell id="KRlPIssLuHrA_qyWP6I0-2" value="" style="endArrow=classic;html=1;rounded=0;exitX=1;exitY=0.5;exitDx=0;exitDy=0;" edge="1" parent="1" source="KRlPIssLuHrA_qyWP6I0-1">
          <mxGeometry width="50" height="50" relative="1" as="geometry">
            <mxPoint x="300" y="80" as="sourcePoint" />
            <mxPoint x="320" y="75" as="targetPoint" />
          </mxGeometry>
        </mxCell>
        <mxCell id="KRlPIssLuHrA_qyWP6I0-3" value="&lt;b style=&quot;font-size: 14px;&quot;&gt;Select NEFT as&lt;br&gt;Payment&lt;/b&gt; &lt;font style=&quot;font-size: 14px;&quot;&gt;&lt;b&gt;mode&lt;/b&gt;&lt;/font&gt;" style="rounded=1;whiteSpace=wrap;html=1;" vertex="1" parent="1">
          <mxGeometry x="320" y="50" width="120" height="50" as="geometry" />
        </mxCell>
        <mxCell id="KRlPIssLuHrA_qyWP6I0-4" value="" style="endArrow=classic;html=1;rounded=0;" edge="1" parent="1">
          <mxGeometry width="50" height="50" relative="1" as="geometry">
            <mxPoint x="440" y="74.5" as="sourcePoint" />
            <mxPoint x="480" y="75" as="targetPoint" />
          </mxGeometry>
        </mxCell>
        <mxCell id="KRlPIssLuHrA_qyWP6I0-5" value="&lt;b&gt;&lt;font style=&quot;font-size: 14px;&quot;&gt;Generate service Number&lt;/font&gt;&lt;/b&gt;" style="rounded=1;whiteSpace=wrap;html=1;" vertex="1" parent="1">
          <mxGeometry x="480" y="50" width="120" height="50" as="geometry" />
        </mxCell>
        <mxCell id="KRlPIssLuHrA_qyWP6I0-6" value="&lt;b style=&quot;font-size: 14px;&quot;&gt;Login To bank&lt;br&gt;Portal&lt;/b&gt;" style="rounded=1;whiteSpace=wrap;html=1;" vertex="1" parent="1">
          <mxGeometry x="160" y="160" width="120" height="50" as="geometry" />
        </mxCell>
        <mxCell id="KRlPIssLuHrA_qyWP6I0-7" value="" style="endArrow=classic;html=1;rounded=0;exitX=1;exitY=0.5;exitDx=0;exitDy=0;" edge="1" parent="1" source="KRlPIssLuHrA_qyWP6I0-6">
          <mxGeometry width="50" height="50" relative="1" as="geometry">
            <mxPoint x="300" y="190" as="sourcePoint" />
            <mxPoint x="320" y="185" as="targetPoint" />
          </mxGeometry>
        </mxCell>
        <mxCell id="KRlPIssLuHrA_qyWP6I0-8" value="" style="edgeStyle=orthogonalEdgeStyle;rounded=0;orthogonalLoop=1;jettySize=auto;html=1;" edge="1" parent="1" source="KRlPIssLuHrA_qyWP6I0-9" target="KRlPIssLuHrA_qyWP6I0-11">
          <mxGeometry relative="1" as="geometry" />
        </mxCell>
        <mxCell id="KRlPIssLuHrA_qyWP6I0-9" value="&lt;b style=&quot;font-size: 14px;&quot;&gt;Using internet banking,transfer funds&lt;br&gt;to designated account&lt;/b&gt;" style="rounded=1;whiteSpace=wrap;html=1;" vertex="1" parent="1">
          <mxGeometry x="320" y="140" width="140" height="90" as="geometry" />
        </mxCell>
        <mxCell id="KRlPIssLuHrA_qyWP6I0-10" value="" style="endArrow=classic;html=1;rounded=0;exitX=1;exitY=0.5;exitDx=0;exitDy=0;" edge="1" parent="1" source="KRlPIssLuHrA_qyWP6I0-9">
          <mxGeometry width="50" height="50" relative="1" as="geometry">
            <mxPoint x="470" y="184.5" as="sourcePoint" />
            <mxPoint x="510" y="185" as="targetPoint" />
          </mxGeometry>
        </mxCell>
        <mxCell id="KRlPIssLuHrA_qyWP6I0-11" value="&lt;b style=&quot;font-size: 14px;&quot;&gt;Obtain unique&amp;nbsp;&lt;br&gt;Transaction Id&lt;/b&gt;" style="rounded=1;whiteSpace=wrap;html=1;" vertex="1" parent="1">
          <mxGeometry x="510" y="160" width="120" height="50" as="geometry" />
        </mxCell>
        <mxCell id="KRlPIssLuHrA_qyWP6I0-12" value="&lt;b style=&quot;font-size: 14px;&quot;&gt;Provide Unique Txn id&lt;br&gt;against Service&lt;br&gt;number&lt;/b&gt;" style="rounded=1;whiteSpace=wrap;html=1;" vertex="1" parent="1">
          <mxGeometry x="160" y="280" width="140" height="80" as="geometry" />
        </mxCell>
        <mxCell id="KRlPIssLuHrA_qyWP6I0-13" value="&lt;b&gt;&lt;font style=&quot;font-size: 14px;&quot;&gt;Department portal&lt;/font&gt;&lt;/b&gt;" style="text;html=1;align=center;verticalAlign=middle;resizable=0;points=[];autosize=1;strokeColor=none;fillColor=none;" vertex="1" parent="1">
          <mxGeometry x="110" y="250" width="140" height="30" as="geometry" />
        </mxCell>
        <mxCell id="KRlPIssLuHrA_qyWP6I0-14" value="&lt;b&gt;&lt;font style=&quot;font-size: 14px;&quot;&gt;Bank portal&lt;/font&gt;&lt;/b&gt;" style="text;html=1;align=center;verticalAlign=middle;resizable=0;points=[];autosize=1;strokeColor=none;fillColor=none;" vertex="1" parent="1">
          <mxGeometry x="110" y="128" width="100" height="30" as="geometry" />
        </mxCell>
        <mxCell id="KRlPIssLuHrA_qyWP6I0-15" value="&lt;b&gt;&lt;font style=&quot;font-size: 14px;&quot;&gt;Department portal&lt;/font&gt;&lt;/b&gt;" style="text;html=1;align=center;verticalAlign=middle;resizable=0;points=[];autosize=1;strokeColor=none;fillColor=none;" vertex="1" parent="1">
          <mxGeometry x="121" y="20" width="140" height="30" as="geometry" />
        </mxCell>
        <mxCell id="KRlPIssLuHrA_qyWP6I0-16" value="" style="shape=curlyBracket;whiteSpace=wrap;html=1;rounded=1;labelPosition=left;verticalLabelPosition=middle;align=right;verticalAlign=middle;" vertex="1" parent="1">
          <mxGeometry x="90" y="38" width="20" height="282" as="geometry" />
        </mxCell>
        <mxCell id="KRlPIssLuHrA_qyWP6I0-17" value="" style="shape=umlActor;verticalLabelPosition=bottom;verticalAlign=top;html=1;outlineConnect=0;strokeWidth=3;" vertex="1" parent="1">
          <mxGeometry x="30" y="149" width="30" height="60" as="geometry" />
        </mxCell>
        <mxCell id="KRlPIssLuHrA_qyWP6I0-18" value="" style="shape=mxgraph.signs.travel.bank;html=1;pointerEvents=1;fillColor=#000000;strokeColor=none;verticalLabelPosition=bottom;verticalAlign=top;align=center;" vertex="1" parent="1">
          <mxGeometry x="11" y="410" width="99" height="86" as="geometry" />
        </mxCell>
        <mxCell id="KRlPIssLuHrA_qyWP6I0-19" value="&lt;b&gt;&lt;font style=&quot;font-size: 14px;&quot;&gt;Banks&lt;/font&gt;&lt;/b&gt;" style="text;html=1;align=center;verticalAlign=middle;resizable=0;points=[];autosize=1;strokeColor=none;fillColor=none;" vertex="1" parent="1">
          <mxGeometry x="25" y="496" width="70" height="30" as="geometry" />
        </mxCell>
        <mxCell id="KRlPIssLuHrA_qyWP6I0-20" value="&lt;b style=&quot;font-size: 14px;&quot;&gt;Share NEFT File&amp;nbsp;&lt;br&gt;With Department&lt;/b&gt;" style="rounded=1;whiteSpace=wrap;html=1;" vertex="1" parent="1">
          <mxGeometry x="160" y="430" width="140" height="60" as="geometry" />
        </mxCell>
        <mxCell id="KRlPIssLuHrA_qyWP6I0-21" value="" style="endArrow=classic;html=1;rounded=0;strokeWidth=2;" edge="1" parent="1">
          <mxGeometry width="50" height="50" relative="1" as="geometry">
            <mxPoint x="300" y="459.5" as="sourcePoint" />
            <mxPoint x="580" y="459.5" as="targetPoint" />
          </mxGeometry>
        </mxCell>
        <mxCell id="KRlPIssLuHrA_qyWP6I0-22" value="&lt;b style=&quot;font-size: 14px;&quot;&gt;transfer Funds to RBI &amp;amp;&lt;br&gt;Scrolls to PAO&lt;/b&gt;" style="rounded=1;whiteSpace=wrap;html=1;" vertex="1" parent="1">
          <mxGeometry x="580" y="430" width="130" height="70" as="geometry" />
        </mxCell>
        <mxCell id="KRlPIssLuHrA_qyWP6I0-23" value="" style="endArrow=classic;html=1;rounded=0;" edge="1" parent="1">
          <mxGeometry width="50" height="50" relative="1" as="geometry">
            <mxPoint x="229.5" y="490" as="sourcePoint" />
            <mxPoint x="230" y="580" as="targetPoint" />
          </mxGeometry>
        </mxCell>
        <mxCell id="KRlPIssLuHrA_qyWP6I0-24" value="" style="html=1;shape=mxgraph.basic.isocube;isoAngle=15;strokeWidth=2;" vertex="1" parent="1">
          <mxGeometry x="11" y="560" width="100" height="100" as="geometry" />
        </mxCell>
        <mxCell id="KRlPIssLuHrA_qyWP6I0-25" value="&lt;b&gt;&lt;font style=&quot;font-size: 14px;&quot;&gt;Departmental&amp;nbsp;&lt;br&gt;&lt;/font&gt;&lt;font style=&quot;font-size: 14px;&quot;&gt;System&lt;/font&gt;&lt;/b&gt;" style="text;html=1;align=center;verticalAlign=middle;resizable=0;points=[];autosize=1;strokeColor=none;fillColor=none;" vertex="1" parent="1">
          <mxGeometry x="1" y="660" width="120" height="50" as="geometry" />
        </mxCell>
        <mxCell id="KRlPIssLuHrA_qyWP6I0-26" value="&lt;b style=&quot;font-size: 14px;&quot;&gt;Map Txn id &amp;amp;&lt;br&gt;Service Number&lt;/b&gt;" style="rounded=1;whiteSpace=wrap;html=1;" vertex="1" parent="1">
          <mxGeometry x="160" y="580" width="120" height="60" as="geometry" />
        </mxCell>
        <mxCell id="KRlPIssLuHrA_qyWP6I0-27" value="&lt;font style=&quot;font-size: 14px;&quot;&gt;&lt;b&gt;Process Service request for&amp;nbsp;&lt;br&gt;Successful payment&amp;nbsp;&lt;/b&gt;&lt;/font&gt;" style="rounded=1;whiteSpace=wrap;html=1;" vertex="1" parent="1">
          <mxGeometry x="360" y="570" width="130" height="80" as="geometry" />
        </mxCell>
        <mxCell id="KRlPIssLuHrA_qyWP6I0-28" value="" style="endArrow=classic;html=1;rounded=0;entryX=0;entryY=0.5;entryDx=0;entryDy=0;" edge="1" parent="1" target="KRlPIssLuHrA_qyWP6I0-27">
          <mxGeometry width="50" height="50" relative="1" as="geometry">
            <mxPoint x="280" y="610" as="sourcePoint" />
            <mxPoint x="330" y="560" as="targetPoint" />
          </mxGeometry>
        </mxCell>
        <mxCell id="KRlPIssLuHrA_qyWP6I0-29" value="&lt;b&gt;&lt;font style=&quot;font-size: 30px;&quot;&gt;NEFT&lt;/font&gt;&lt;/b&gt;" style="text;html=1;align=center;verticalAlign=middle;resizable=0;points=[];autosize=1;strokeColor=none;fillColor=none;" vertex="1" parent="1">
          <mxGeometry x="700" width="100" height="50" as="geometry" />
        </mxCell>
      </root>
    </mxGraphModel>
  </diagram>
</mxfile>
